Semana 5/Codigos/vvp/transmissor_ascii_tb.vcd
$date
	Fri Sep 27 10:07:34 2024
$end
$version
	Icarus Verilog
$end
$timescale
	1ns
$end
$scope module transmissor_ascii_tb $end
$var wire 1 ! pronto $end
$var wire 1 " dado_serial $end
$var reg 7 # caractere_final_angulo [6:0] $end
$var reg 7 $ caractere_final_distancia [6:0] $end
$var reg 7 % centena_angulo [6:0] $end
$var reg 7 & centena_distancia [6:0] $end
$var reg 1 ' clock $end
$var reg 7 ( dezena_angulo [6:0] $end
$var reg 7 ) dezena_distancia [6:0] $end
$var reg 1 * iniciar $end
$var reg 1 + reset $end
$var reg 7 , unidade_angulo [6:0] $end
$var reg 7 - unidade_distancia [6:0] $end
$var integer 32 . caso [31:0] $end
$scope module dut $end
$var wire 7 / caractere_final_angulo [6:0] $end
$var wire 7 0 caractere_final_distancia [6:0] $end
$var wire 7 1 centena_angulo [6:0] $end
$var wire 7 2 centena_distancia [6:0] $end
$var wire 1 ' clock $end
$var wire 7 3 dezena_angulo [6:0] $end
$var wire 7 4 dezena_distancia [6:0] $end
$var wire 1 * iniciar $end
$var wire 1 + reset $end
$var wire 7 5 unidade_angulo [6:0] $end
$var wire 7 6 unidade_distancia [6:0] $end
$var wire 1 7 s_transmite $end
$var wire 1 8 s_fim_transmissao $end
$var wire 1 ! pronto $end
$var wire 1 " dado_serial $end
$scope module FD $end
$var wire 7 9 caractere_final_angulo [6:0] $end
$var wire 7 : caractere_final_distancia [6:0] $end
$var wire 7 ; centena_angulo [6:0] $end
$var wire 7 < centena_distancia [6:0] $end
$var wire 1 ' clock $end
$var wire 7 = dezena_angulo [6:0] $end
$var wire 7 > dezena_distancia [6:0] $end
$var wire 1 8 fim_transmissao $end
$var wire 1 + reset $end
$var wire 7 ? unidade_angulo [6:0] $end
$var wire 7 @ unidade_distancia [6:0] $end
$var wire 1 7 transmite $end
$var wire 3 A sel [2:0] $end
$var wire 1 " saida_serial $end
$var wire 1 B s_fim_transmissao $end
$var wire 7 C ascii_transmitido [6:0] $end
$scope module CONTA_SELECT $end
$var wire 1 ' clock $end
$var wire 1 D zera_as $end
$var wire 1 + zera_s $end
$var wire 1 B conta $end
$var reg 3 E Q [2:0] $end
$var reg 1 F fim $end
$var reg 1 G meio $end
$upscope $end
$scope module MUX $end
$var wire 7 H D0 [6:0] $end
$var wire 7 I D1 [6:0] $end
$var wire 7 J D2 [6:0] $end
$var wire 7 K D3 [6:0] $end
$var wire 7 L D4 [6:0] $end
$var wire 7 M D5 [6:0] $end
$var wire 7 N D6 [6:0] $end
$var wire 7 O D7 [6:0] $end
$var wire 3 P SEL [2:0] $end
$var wire 7 Q MUX_OUT [6:0] $end
$upscope $end
$scope module SERIAL $end
$var wire 1 ' clock $end
$var wire 7 R dados_ascii [6:0] $end
$var wire 1 S db_clock $end
$var wire 4 T db_estado [3:0] $end
$var wire 1 U db_partida $end
$var wire 1 V db_saida_serial $end
$var wire 1 W db_tick $end
$var wire 1 + reset $end
$var wire 1 X s_partida $end
$var wire 1 Y s_reset $end
$var wire 1 " saida_serial $end
$var wire 1 Z s_zera $end
$var wire 1 [ s_tick $end
$var wire 1 \ s_saida_serial $end
$var wire 1 ] s_fim $end
$var wire 4 ^ s_estado [3:0] $end
$var wire 1 _ s_desloca $end
$var wire 1 ` s_conta $end
$var wire 1 a s_carrega $end
$var wire 1 B pronto $end
$var wire 1 7 partida $end
$scope module U1_FD $end
$var wire 1 ' clock $end
$var wire 7 b dados_ascii [6:0] $end
$var wire 1 Y reset $end
$var wire 1 Z zera $end
$var wire 1 \ saida_serial $end
$var wire 11 c s_saida [10:0] $end
$var wire 11 d s_dados [10:0] $end
$var wire 1 ] fim $end
$var wire 1 _ desloca $end
$var wire 1 ` conta $end
$var wire 1 a carrega $end
$scope module U1 $end
$var wire 1 ' clock $end
$var wire 11 e dados [10:0] $end
$var wire 1 f entrada_serial $end
$var wire 1 Y reset $end
$var wire 11 g saida [10:0] $end
$var wire 1 _ desloca $end
$var wire 1 a carrega $end
$var reg 11 h IQ [10:0] $end
$upscope $end
$scope module U2 $end
$var wire 1 ' clock $end
$var wire 1 i zera_as $end
$var wire 1 Z zera_s $end
$var wire 1 ` conta $end
$var reg 4 j Q [3:0] $end
$var reg 1 ] fim $end
$var reg 1 k meio $end
$upscope $end
$upscope $end
$scope module U2_UC $end
$var wire 1 ' clock $end
$var wire 1 ] fim $end
$var wire 1 X partida $end
$var wire 1 Y reset $end
$var wire 1 [ tick $end
$var reg 4 l Eatual [3:0] $end
$var reg 4 m Eprox [3:0] $end
$var reg 1 a carrega $end
$var reg 1 ` conta $end
$var reg 4 n db_estado [3:0] $end
$var reg 1 _ desloca $end
$var reg 1 B pronto $end
$var reg 1 Z zera $end
$upscope $end
$scope module U3_TICK $end
$var wire 1 ' clock $end
$var wire 1 o conta $end
$var wire 1 p zera_as $end
$var wire 1 Z zera_s $end
$var reg 9 q Q [8:0] $end
$var reg 1 [ fim $end
$var reg 1 r meio $end
$upscope $end
$upscope $end
$upscope $end
$scope module UC $end
$var wire 1 ' clock $end
$var wire 1 8 fim_transmissao $end
$var wire 1 * iniciar $end
$var wire 1 + reset $end
$var reg 5 s Eatual [4:0] $end
$var reg 5 t Eprox [4:0] $end
$var reg 1 ! pronto $end
$var reg 1 7 transmite $end
$upscope $end
$upscope $end
$upscope $end
$enddefinitions $end
#0
$dumpvars
b0 t
bx s
xr
bx q
0p
1o
bx n
bx m
bx l
xk
bx j
0i
bx h
bx g
1f
b1xx1xxxxx01 e
b1xx1xxxxx01 d
bx c
bx1xxxxx b
xa
x`
x_
bx ^
x]
x\
x[
xZ
xY
xX
xW
xV
xU
bx T
0S
bx1xxxxx R
bx1xxxxx Q
bx P
b100011 O
b110111 N
b111000 M
b110010 L
b101100 K
b110111 J
b110100 I
b110001 H
xG
xF
bx E
zD
bx1xxxxx C
xB
bx A
b110111 @
b110111 ?
b111000 >
b110100 =
b110010 <
b110001 ;
b100011 :
b101100 9
x8
x7
b110111 6
b110111 5
b111000 4
b110100 3
b110010 2
b110001 1
b100011 0
b101100 /
b0 .
b110111 -
b110111 ,
x+
0*
b111000 )
b110100 (
0'
b110010 &
b110001 %
b100011 $
b101100 #
x"
x!
$end
#10
b0 m
0!
0U
0X
07
b0 s
1S
1'
#20
0S
0'
#30
b0 T
b0 ^
b0 n
08
0B
0`
0_
0Z
0a
b0 l
1S
1'
#40
1V
1"
1\
b11111111111 c
b11111111111 g
b11111111111 h
0S
0'
1Y
1+
#50
0G
0F
b10011000101 d
b10011000101 e
b110001 C
b110001 Q
b110001 R
b110001 b
b0 A
b0 E
b0 P
1S
1'
#60
0S
0'
#70
1S
1'
#80
0S
0'
#90
1S
1'
#100
0S
0'
#110
1S
1'
#120
0S
0'
#130
1S
1'
#140
0S
0'
#150
1S
1'
#160
0S
0'
#170
1S
1'
#180
0S
0'
#190
1S
1'
#200
0S
0'
#210
1S
1'
#220
0S
0'
#230
1S
1'
#240
0S
0'
#250
1S
1'
#260
0S
0'
#270
1S
1'
#280
0S
0'
#290
1S
1'
#300
0S
0'
#310
1S
1'
#320
0S
0'
#330
1S
1'
#340
0S
0'
#350
1S
1'
#360
0S
0'
#370
1S
1'
#380
0S
0'
#390
1S
1'
#400
0S
0'
#410
1S
1'
#420
0S
0'
#430
1S
1'
#440
0S
0'
#450
1S
1'
#460
0S
0'
#470
1S
1'
#480
0S
0'
#490
1S
1'
#500
0S
0'
#510
1S
1'
#520
0S
0'
#530
1S
1'
#540
0S
0'
#550
1S
1'
#560
0S
0'
#570
1S
1'
#580
0S
0'
#590
1S
1'
#600
0S
0'
#610
1S
1'
#620
0S
0'
#630
1S
1'
#640
0S
0'
#650
1S
1'
#660
0S
0'
#670
1S
1'
#680
0S
0'
#690
1S
1'
#700
0S
0'
#710
1S
1'
#720
0S
0'
#730
1S
1'
#740
0S
0'
#750
1S
1'
#760
0S
0'
#770
1S
1'
#780
0S
0'
#790
1S
1'
#800
0S
0'
#810
1S
1'
#820
0S
0'
#830
1S
1'
#840
0S
0'
#850
1S
1'
#860
0S
0'
#870
1S
1'
#880
0S
0'
#890
1S
1'
#900
0S
0'
#910
1S
1'
#920
0S
0'
#930
1S
1'
#940
0S
0'
#950
1S
1'
#960
0S
0'
#970
1S
1'
#980
0S
0'
#990
1S
1'
#1000
0S
0'
#1010
1S
1'
#1020
0S
0'
#1030
1S
1'
#1040
0S
0'
#1050
1S
1'
#1060
0S
0'
#1070
1S
1'
#1080
0S
0'
#1090
1S
1'
#1100
0S
0'
#1110
1S
1'
#1120
0S
0'
#1130
1S
1'
#1140
0S
0'
#1150
1S
1'
#1160
0S
0'
#1170
1S
1'
#1180
0S
0'
#1190
1S
1'
#1200
0S
0'
#1210
1S
1'
#1220
0S
0'
#1230
1S
1'
#1240
0S
0'
#1250
1S
1'
#1260
0S
0'
#1270
1S
1'
#1280
0S
0'
#1290
1S
1'
#1300
0S
0'
#1310
1S
1'
#1320
0S
0'
#1330
1S
1'
#1340
0S
0'
#1350
1S
1'
#1360
0S
0'
#1370
1S
1'
#1380
0S
0'
#1390
1S
1'
#1400
0S
0'
#1410
1S
1'
#1420
0S
0'
#1430
1S
1'
#1440
0S
0'
#1450
1S
1'
#1460
0S
0'
#1470
1S
1'
#1480
0S
0'
#1490
1S
1'
#1500
0S
0'
#1510
1S
1'
#1520
0S
0'
#1530
1S
1'
#1540
0S
0'
#1550
1S
1'
#1560
0S
0'
#1570
1S
1'
#1580
0S
0'
#1590
1S
1'
#1600
0S
0'
#1610
1S
1'
#1620
0S
0'
#1630
1S
1'
#1640
0S
0'
#1650
1S
1'
#1660
0S
0'
#1670
1S
1'
#1680
0S
0'
#1690
1S
1'
#1700
0S
0'
#1710
1S
1'
#1720
0S
0'
#1730
1S
1'
#1740
0S
0'
#1750
1S
1'
#1760
0S
0'
#1770
1S
1'
#1780
0S
0'
#1790
1S
1'
#1800
0S
0'
#1810
1S
1'
#1820
0S
0'
#1830
1S
1'
#1840
0S
0'
#1850
1S
1'
#1860
0S
0'
#1870
1S
1'
#1880
0S
0'
#1890
1S
1'
#1900
0S
0'
#1910
1S
1'
#1920
0S
0'
#1930
1S
1'
#1940
0S
0'
#1950
1S
1'
#1960
0S
0'
#1970
1S
1'
#1980
0S
0'
#1990
1S
1'
#2000
0S
0'
#2010
1S
1'
#2020
0S
0'
#2030
1S
1'
#2040
b1 t
1*
0S
0'
0Y
0+
#2050
b1 m
1U
1X
17
b10 t
b1 s
1S
1'
#2060
0S
0'
#2070
b1 T
b1 ^
b1 n
1Z
1a
b11 m
0U
0X
07
b1 l
b10 s
1S
1'
#2080
0S
0'
0*
#2090
b11 T
b11 ^
b11 n
0Z
0a
0k
0]
0r
0W
0[
b11 l
b10011000101 c
b10011000101 g
b10011000101 h
b0 j
b0 q
1S
1'
#2100
0S
0'
#2110
b1 q
1S
1'
#2120
0S
0'
#2130
b10 q
1S
1'
#2140
0S
0'
#2150
b11 q
1S
1'
#2160
0S
0'
#2170
b100 q
1S
1'
#2180
0S
0'
#2190
b101 q
1S
1'
#2200
0S
0'
#2210
b110 q
1S
1'
#2220
0S
0'
#2230
b111 q
1S
1'
#2240
0S
0'
#2250
b1000 q
1S
1'
#2260
0S
0'
#2270
b1001 q
1S
1'
#2280
0S
0'
#2290
b1010 q
1S
1'
#2300
0S
0'
#2310
b1011 q
1S
1'
#2320
0S
0'
#2330
b1100 q
1S
1'
#2340
0S
0'
#2350
b1101 q
1S
1'
#2360
0S
0'
#2370
b1110 q
1S
1'
#2380
0S
0'
#2390
b1111 q
1S
1'
#2400
0S
0'
#2410
b10000 q
1S
1'
#2420
0S
0'
#2430
b10001 q
1S
1'
#2440
0S
0'
#2450
b10010 q
1S
1'
#2460
0S
0'
#2470
b10011 q
1S
1'
#2480
0S
0'
#2490
b10100 q
1S
1'
#2500
0S
0'
#2510
b10101 q
1S
1'
#2520
0S
0'
#2530
b10110 q
1S
1'
#2540
0S
0'
#2550
b10111 q
1S
1'
#2560
0S
0'
#2570
b11000 q
1S
1'
#2580
0S
0'
#2590
b11001 q
1S
1'
#2600
0S
0'
#2610
b11010 q
1S
1'
#2620
0S
0'
#2630
b11011 q
1S
1'
#2640
0S
0'
#2650
b11100 q
1S
1'
#2660
0S
0'
#2670
b11101 q
1S
1'
#2680
0S
0'
#2690
b11110 q
1S
1'
#2700
0S
0'
#2710
b11111 q
1S
1'
#2720
0S
0'
#2730
b100000 q
1S
1'
#2740
0S
0'
#2750
b100001 q
1S
1'
#2760
0S
0'
#2770
b100010 q
1S
1'
#2780
0S
0'
#2790
b100011 q
1S
1'
#2800
0S
0'
#2810
b100100 q
1S
1'
#2820
0S
0'
#2830
b100101 q
1S
1'
#2840
0S
0'
#2850
b100110 q
1S
1'
#2860
0S
0'
#2870
b100111 q
1S
1'
#2880
0S
0'
#2890
b101000 q
1S
1'
#2900
0S
0'
#2910
b101001 q
1S
1'
#2920
0S
0'
#2930
b101010 q
1S
1'
#2940
0S
0'
#2950
b101011 q
1S
1'
#2960
0S
0'
#2970
b101100 q
1S
1'
#2980
0S
0'
#2990
b101101 q
1S
1'
#3000
0S
0'
#3010
b101110 q
1S
1'
#3020
0S
0'
#3030
b101111 q
1S
1'
#3040
0S
0'
#3050
b110000 q
1S
1'
#3060
0S
0'
#3070
b110001 q
1S
1'
#3080
0S
0'
#3090
b110010 q
1S
1'
#3100
0S
0'
#3110
b110011 q
1S
1'
#3120
0S
0'
#3130
b110100 q
1S
1'
#3140
0S
0'
#3150
b110101 q
1S
1'
#3160
0S
0'
#3170
b110110 q
1S
1'
#3180
0S
0'
#3190
b110111 q
1S
1'
#3200
0S
0'
#3210
b111000 q
1S
1'
#3220
0S
0'
#3230
b111001 q
1S
1'
#3240
0S
0'
#3250
b111010 q
1S
1'
#3260
0S
0'
#3270
b111011 q
1S
1'
#3280
0S
0'
#3290
b111100 q
1S
1'
#3300
0S
0'
#3310
b111101 q
1S
1'
#3320
0S
0'
#3330
b111110 q
1S
1'
#3340
0S
0'
#3350
b111111 q
1S
1'
#3360
0S
0'
#3370
b1000000 q
1S
1'
#3380
0S
0'
#3390
b1000001 q
1S
1'
#3400
0S
0'
#3410
b1000010 q
1S
1'
#3420
0S
0'
#3430
b1000011 q
1S
1'
#3440
0S
0'
#3450
b1000100 q
1S
1'
#3460
0S
0'
#3470
b1000101 q
1S
1'
#3480
0S
0'
#3490
b1000110 q
1S
1'
#3500
0S
0'
#3510
b1000111 q
1S
1'
#3520
0S
0'
#3530
b1001000 q
1S
1'
#3540
0S
0'
#3550
b1001001 q
1S
1'
#3560
0S
0'
#3570
b1001010 q
1S
1'
#3580
0S
0'
#3590
b1001011 q
1S
1'
#3600
0S
0'
#3610
b1001100 q
1S
1'
#3620
0S
0'
#3630
b1001101 q
1S
1'
#3640
0S
0'
#3650
b1001110 q
1S
1'
#3660
0S
0'
#3670
b1001111 q
1S
1'
#3680
0S
0'
#3690
b1010000 q
1S
1'
#3700
0S
0'
#3710
b1010001 q
1S
1'
#3720
0S
0'
#3730
b1010010 q
1S
1'
#3740
0S
0'
#3750
b1010011 q
1S
1'
#3760
0S
0'
#3770
b1010100 q
1S
1'
#3780
0S
0'
#3790
b1010101 q
1S
1'
#3800
0S
0'
#3810
b1010110 q
1S
1'
#3820
0S
0'
#3830
b1010111 q
1S
1'
#3840
0S
0'
#3850
b1011000 q
1S
1'
#3860
0S
0'
#3870
b1011001 q
1S
1'
#3880
0S
0'
#3890
b1011010 q
1S
1'
#3900
0S
0'
#3910
b1011011 q
1S
1'
#3920
0S
0'
#3930
b1011100 q
1S
1'
#3940
0S
0'
#3950
b1011101 q
1S
1'
#3960
0S
0'
#3970
b1011110 q
1S
1'
#3980
0S
0'
#3990
b1011111 q
1S
1'
#4000
0S
0'
#4010
b1100000 q
1S
1'
#4020
0S
0'
#4030
b1100001 q
1S
1'
#4040
0S
0'
#4050
b1100010 q
1S
1'
#4060
0S
0'
#4070
b1100011 q
1S
1'
#4080
0S
0'
#4090
b1100100 q
1S
1'
#4100
0S
0'
#4110
b1100101 q
1S
1'
#4120
0S
0'
#4130
b1100110 q
1S
1'
#4140
0S
0'
#4150
b1100111 q
1S
1'
#4160
0S
0'
#4170
b1101000 q
1S
1'
#4180
0S
0'
#4190
b1101001 q
1S
1'
#4200
0S
0'
#4210
b1101010 q
1S
1'
#4220
0S
0'
#4230
b1101011 q
1S
1'
#4240
0S
0'
#4250
b1101100 q
1S
1'
#4260
0S
0'
#4270
b1101101 q
1S
1'
#4280
0S
0'
#4290
b1101110 q
1S
1'
#4300
0S
0'
#4310
b1101111 q
1S
1'
#4320
0S
0'
#4330
b1110000 q
1S
1'
#4340
0S
0'
#4350
b1110001 q
1S
1'
#4360
0S
0'
#4370
b1110010 q
1S
1'
#4380
0S
0'
#4390
b1110011 q
1S
1'
#4400
0S
0'
#4410
b1110100 q
1S
1'
#4420
0S
0'
#4430
b1110101 q
1S
1'
#4440
0S
0'
#4450
b1110110 q
1S
1'
#4460
0S
0'
#4470
b1110111 q
1S
1'
#4480
0S
0'
#4490
b1111000 q
1S
1'
#4500
0S
0'
#4510
b1111001 q
1S
1'
#4520
0S
0'
#4530
b1111010 q
1S
1'
#4540
0S
0'
#4550
b1111011 q
1S
1'
#4560
0S
0'
#4570
b1111100 q
1S
1'
#4580
0S
0'
#4590
b1111101 q
1S
1'
#4600
0S
0'
#4610
b1111110 q
1S
1'
#4620
0S
0'
#4630
b1111111 q
1S
1'
#4640
0S
0'
#4650
b10000000 q
1S
1'
#4660
0S
0'
#4670
b10000001 q
1S
1'
#4680
0S
0'
#4690
b10000010 q
1S
1'
#4700
0S
0'
#4710
b10000011 q
1S
1'
#4720
0S
0'
#4730
b10000100 q
1S
1'
#4740
0S
0'
#4750
b10000101 q
1S
1'
#4760
0S
0'
#4770
b10000110 q
1S
1'
#4780
0S
0'
#4790
b10000111 q
1S
1'
#4800
0S
0'
#4810
b10001000 q
1S
1'
#4820
0S
0'
#4830
b10001001 q
1S
1'
#4840
0S
0'
#4850
b10001010 q
1S
1'
#4860
0S
0'
#4870
b10001011 q
1S
1'
#4880
0S
0'
#4890
b10001100 q
1S
1'
#4900
0S
0'
#4910
b10001101 q
1S
1'
#4920
0S
0'
#4930
b10001110 q
1S
1'
#4940
0S
0'
#4950
b10001111 q
1S
1'
#4960
0S
0'
#4970
b10010000 q
1S
1'
#4980
0S
0'
#4990
b10010001 q
1S
1'
#5000
0S
0'
#5010
b10010010 q
1S
1'
#5020
0S
0'
#5030
b10010011 q
1S
1'
#5040
0S
0'
#5050
b10010100 q
1S
1'
#5060
0S
0'
#5070
b10010101 q
1S
1'
#5080
0S
0'
#5090
b10010110 q
1S
1'
#5100
0S
0'
#5110
b10010111 q
1S
1'
#5120
0S
0'
#5130
b10011000 q
1S
1'
#5140
0S
0'
#5150
b10011001 q
1S
1'
#5160
0S
0'
#5170
b10011010 q
1S
1'
#5180
0S
0'
#5190
b10011011 q
1S
1'
#5200
0S
0'
#5210
b10011100 q
1S
1'
#5220
0S
0'
#5230
b10011101 q
1S
1'
#5240
0S
0'
#5250
b10011110 q
1S
1'
#5260
0S
0'
#5270
b10011111 q
1S
1'
#5280
0S
0'
#5290
b10100000 q
1S
1'
#5300
0S
0'
#5310
b10100001 q
1S
1'
#5320
0S
0'
#5330
b10100010 q
1S
1'
#5340
0S
0'
#5350
b10100011 q
1S
1'
#5360
0S
0'
#5370
b10100100 q
1S
1'
#5380
0S
0'
#5390
b10100101 q
1S
1'
#5400
0S
0'
#5410
b10100110 q
1S
1'
#5420
0S
0'
#5430
b10100111 q
1S
1'
#5440
0S
0'
#5450
b10101000 q
1S
1'
#5460
0S
0'
#5470
b10101001 q
1S
1'
#5480
0S
0'
#5490
b10101010 q
1S
1'
#5500
0S
0'
#5510
b10101011 q
1S
1'
#5520
0S
0'
#5530
b10101100 q
1S
1'
#5540
0S
0'
#5550
b10101101 q
1S
1'
#5560
0S
0'
#5570
b10101110 q
1S
1'
#5580
0S
0'
#5590
b10101111 q
1S
1'
#5600
0S
0'
#5610
b10110000 q
1S
1'
#5620
0S
0'
#5630
b10110001 q
1S
1'
#5640
0S
0'
#5650
b10110010 q
1S
1'
#5660
0S
0'
#5670
b10110011 q
1S
1'
#5680
0S
0'
#5690
b10110100 q
1S
1'
#5700
0S
0'
#5710
b10110101 q
1S
1'
#5720
0S
0'
#5730
b10110110 q
1S
1'
#5740
0S
0'
#5750
b10110111 q
1S
1'
#5760
0S
0'
#5770
b10111000 q
1S
1'
#5780
0S
0'
#5790
b10111001 q
1S
1'
#5800
0S
0'
#5810
b10111010 q
1S
1'
#5820
0S
0'
#5830
b10111011 q
1S
1'
#5840
0S
0'
#5850
b10111100 q
1S
1'
#5860
0S
0'
#5870
b10111101 q
1S
1'
#5880
0S
0'
#5890
b10111110 q
1S
1'
#5900
0S
0'
#5910
b10111111 q
1S
1'
#5920
0S
0'
#5930
b11000000 q
1S
1'
#5940
0S
0'
#5950
b11000001 q
1S
1'
#5960
0S
0'
#5970
b11000010 q
1S
1'
#5980
0S
0'
#5990
b11000011 q
1S
1'
#6000
0S
0'
#6010
b11000100 q
1S
1'
#6020
0S
0'
#6030
b11000101 q
1S
1'
#6040
0S
0'
#6050
b11000110 q
1S
1'
#6060
0S
0'
#6070
b11000111 q
1S
1'
#6080
0S
0'
#6090
b11001000 q
1S
1'
#6100
0S
0'
#6110
b11001001 q
1S
1'
#6120
0S
0'
#6130
b11001010 q
1S
1'
#6140
0S
0'
#6150
b11001011 q
1S
1'
#6160
0S
0'
#6170
b11001100 q
1S
1'
#6180
0S
0'
#6190
b11001101 q
1S
1'
#6200
0S
0'
#6210
b11001110 q
1S
1'
#6220
0S
0'
#6230
b11001111 q
1S
1'
#6240
0S
0'
#6250
b11010000 q
1S
1'
#6260
0S
0'
#6270
b11010001 q
1S
1'
#6280
0S
0'
#6290
b11010010 q
1S
1'
#6300
0S
0'
#6310
b11010011 q
1S
1'
#6320
0S
0'
#6330
b11010100 q
1S
1'
#6340
0S
0'
#6350
b11010101 q
1S
1'
#6360
0S
0'
#6370
b11010110 q
1S
1'
#6380
0S
0'
#6390
b11010111 q
1S
1'
#6400
0S
0'
#6410
1r
b11011000 q
1S
1'
#6420
0S
0'
#6430
0r
b11011001 q
1S
1'
#6440
0S
0'
#6450
b11011010 q
1S
1'
#6460
0S
0'
#6470
b11011011 q
1S
1'
#6480
0S
0'
#6490
b11011100 q
1S
1'
#6500
0S
0'
#6510
b11011101 q
1S
1'
#6520
0S
0'
#6530
b11011110 q
1S
1'
#6540
0S
0'
#6550
b11011111 q
1S
1'
#6560
0S
0'
#6570
b11100000 q
1S
1'
#6580
0S
0'
#6590
b11100001 q
1S
1'
#6600
0S
0'
#6610
b11100010 q
1S
1'
#6620
0S
0'
#6630
b11100011 q
1S
1'
#6640
0S
0'
#6650
b11100100 q
1S
1'
#6660
0S
0'
#6670
b11100101 q
1S
1'
#6680
0S
0'
#6690
b11100110 q
1S
1'
#6700
0S
0'
#6710
b11100111 q
1S
1'
#6720
0S
0'
#6730
b11101000 q
1S
1'
#6740
0S
0'
#6750
b11101001 q
1S
1'
#6760
0S
0'
#6770
b11101010 q
1S
1'
#6780
0S
0'
#6790
b11101011 q
1S
1'
#6800
0S
0'
#6810
b11101100 q
1S
1'
#6820
0S
0'
#6830
b11101101 q
1S
1'
#6840
0S
0'
#6850
b11101110 q
1S
1'
#6860
0S
0'
#6870
b11101111 q
1S
1'
#6880
0S
0'
#6890
b11110000 q
1S
1'
#6900
0S
0'
#6910
b11110001 q
1S
1'
#6920
0S
0'
#6930
b11110010 q
1S
1'
#6940
0S
0'
#6950
b11110011 q
1S
1'
#6960
0S
0'
#6970
b11110100 q
1S
1'
#6980
0S
0'
#6990
b11110101 q
1S
1'
#7000
0S
0'
#7010
b11110110 q
1S
1'
#7020
0S
0'
#7030
b11110111 q
1S
1'
#7040
0S
0'
#7050
b11111000 q
1S
1'
#7060
0S
0'
#7070
b11111001 q
1S
1'
#7080
0S
0'
#7090
b11111010 q
1S
1'
#7100
0S
0'
#7110
b11111011 q
1S
1'
#7120
0S
0'
#7130
b11111100 q
1S
1'
#7140
0S
0'
#7150
b11111101 q
1S
1'
#7160
0S
0'
#7170
b11111110 q
1S
1'
#7180
0S
0'
#7190
b11111111 q
1S
1'
#7200
0S
0'
#7210
b100000000 q
1S
1'
#7220
0S
0'
#7230
b100000001 q
1S
1'
#7240
0S
0'
#7250
b100000010 q
1S
1'
#7260
0S
0'
#7270
b100000011 q
1S
1'
#7280
0S
0'
#7290
b100000100 q
1S
1'
#7300
0S
0'
#7310
b100000101 q
1S
1'
#7320
0S
0'
#7330
b100000110 q
1S
1'
#7340
0S
0'
#7350
b100000111 q
1S
1'
#7360
0S
0'
#7370
b100001000 q
1S
1'
#7380
0S
0'
#7390
b100001001 q
1S
1'
#7400
0S
0'
#7410
b100001010 q
1S
1'
#7420
0S
0'
#7430
b100001011 q
1S
1'
#7440
0S
0'
#7450
b100001100 q
1S
1'
#7460
0S
0'
#7470
b100001101 q
1S
1'
#7480
0S
0'
#7490
b100001110 q
1S
1'
#7500
0S
0'
#7510
b100001111 q
1S
1'
#7520
0S
0'
#7530
b100010000 q
1S
1'
#7540
0S
0'
#7550
b100010001 q
1S
1'
#7560
0S
0'
#7570
b100010010 q
1S
1'
#7580
0S
0'
#7590
b100010011 q
1S
1'
#7600
0S
0'
#7610
b100010100 q
1S
1'
#7620
0S
0'
#7630
b100010101 q
1S
1'
#7640
0S
0'
#7650
b100010110 q
1S
1'
#7660
0S
0'
#7670
b100010111 q
1S
1'
#7680
0S
0'
#7690
b100011000 q
1S
1'
#7700
0S
0'
#7710
b100011001 q
1S
1'
#7720
0S
0'
#7730
b100011010 q
1S
1'
#7740
0S
0'
#7750
b100011011 q
1S
1'
#7760
0S
0'
#7770
b100011100 q
1S
1'
#7780
0S
0'
#7790
b100011101 q
1S
1'
#7800
0S
0'
#7810
b100011110 q
1S
1'
#7820
0S
0'
#7830
b100011111 q
1S
1'
#7840
0S
0'
#7850
b100100000 q
1S
1'
#7860
0S
0'
#7870
b100100001 q
1S
1'
#7880
0S
0'
#7890
b100100010 q
1S
1'
#7900
0S
0'
#7910
b100100011 q
1S
1'
#7920
0S
0'
#7930
b100100100 q
1S
1'
#7940
0S
0'
#7950
b100100101 q
1S
1'
#7960
0S
0'
#7970
b100100110 q
1S
1'
#7980
0S
0'
#7990
b100100111 q
1S
1'
#8000
0S
0'
#8010
b100101000 q
1S
1'
#8020
0S
0'
#8030
b100101001 q
1S
1'
#8040
0S
0'
#8050
b100101010 q
1S
1'
#8060
0S
0'
#8070
b100101011 q
1S
1'
#8080
0S
0'
#8090
b100101100 q
1S
1'
#8100
0S
0'
#8110
b100101101 q
1S
1'
#8120
0S
0'
#8130
b100101110 q
1S
1'
#8140
0S
0'
#8150
b100101111 q
1S
1'
#8160
0S
0'
#8170
b100110000 q
1S
1'
#8180
0S
0'
#8190
b100110001 q
1S
1'
#8200
0S
0'
#8210
b100110010 q
1S
1'
#8220
0S
0'
#8230
b100110011 q
1S
1'
#8240
0S
0'
#8250
b100110100 q
1S
1'
#8260
0S
0'
#8270
b100110101 q
1S
1'
#8280
0S
0'
#8290
b100110110 q
1S
1'
#8300
0S
0'
#8310
b100110111 q
1S
1'
#8320
0S
0'
#8330
b100111000 q
1S
1'
#8340
0S
0'
#8350
b100111001 q
1S
1'
#8360
0S
0'
#8370
b100111010 q
1S
1'
#8380
0S
0'
#8390
b100111011 q
1S
1'
#8400
0S
0'
#8410
b100111100 q
1S
1'
#8420
0S
0'
#8430
b100111101 q
1S
1'
#8440
0S
0'
#8450
b100111110 q
1S
1'
#8460
0S
0'
#8470
b100111111 q
1S
1'
#8480
0S
0'
#8490
b101000000 q
1S
1'
#8500
0S
0'
#8510
b101000001 q
1S
1'
#8520
0S
0'
#8530
b101000010 q
1S
1'
#8540
0S
0'
#8550
b101000011 q
1S
1'
#8560
0S
0'
#8570
b101000100 q
1S
1'
#8580
0S
0'
#8590
b101000101 q
1S
1'
#8600
0S
0'
#8610
b101000110 q
1S
1'
#8620
0S
0'
#8630
b101000111 q
1S
1'
#8640
0S
0'
#8650
b101001000 q
1S
1'
#8660
0S
0'
#8670
b101001001 q
1S
1'
#8680
0S
0'
#8690
b101001010 q
1S
1'
#8700
0S
0'
#8710
b101001011 q
1S
1'
#8720
0S
0'
#8730
b101001100 q
1S
1'
#8740
0S
0'
#8750
b101001101 q
1S
1'
#8760
0S
0'
#8770
b101001110 q
1S
1'
#8780
0S
0'
#8790
b101001111 q
1S
1'
#8800
0S
0'
#8810
b101010000 q
1S
1'
#8820
0S
0'
#8830
b101010001 q
1S
1'
#8840
0S
0'
#8850
b101010010 q
1S
1'
#8860
0S
0'
#8870
b101010011 q
1S
1'
#8880
0S
0'
#8890
b101010100 q
1S
1'
#8900
0S
0'
#8910
b101010101 q
1S
1'
#8920
0S
0'
#8930
b101010110 q
1S
1'
#8940
0S
0'
#8950
b101010111 q
1S
1'
#8960
0S
0'
#8970
b101011000 q
1S
1'
#8980
0S
0'
#8990
b101011001 q
1S
1'
#9000
0S
0'
#9010
b101011010 q
1S
1'
#9020
0S
0'
#9030
b101011011 q
1S
1'
#9040
0S
0'
#9050
b101011100 q
1S
1'
#9060
0S
0'
#9070
b101011101 q
1S
1'
#9080
0S
0'
#9090
b101011110 q
1S
1'
#9100
0S
0'
#9110
b101011111 q
1S
1'
#9120
0S
0'
#9130
b101100000 q
1S
1'
#9140
0S
0'
#9150
b101100001 q
1S
1'
#9160
0S
0'
#9170
b101100010 q
1S
1'
#9180
0S
0'
#9190
b101100011 q
1S
1'
