Semana 5/dump.vcd
$date
	Sat Sep 28 18:25:15 2024
$end
$version
	ModelSim Version 2020.1
$end
$timescale
	1ns
$end

$scope module transmissor_ascii_tb $end
$var parameter 32 ! clockPeriod $end
$var reg 1 " clock $end
$var reg 1 # reset $end
$var reg 1 $ iniciar $end
$var reg 7 % centena_angulo [6:0] $end
$var reg 7 & dezena_angulo [6:0] $end
$var reg 7 ' unidade_angulo [6:0] $end
$var reg 7 ( caractere_final_angulo [6:0] $end
$var reg 7 ) centena_distancia [6:0] $end
$var reg 7 * dezena_distancia [6:0] $end
$var reg 7 + unidade_distancia [6:0] $end
$var reg 7 , caractere_final_distancia [6:0] $end
$var wire 1 - dado_serial $end
$var wire 1 . pronto $end
$var integer 32 / caso $end
$var reg 32 0 larguraPulso [31:0] $end

$scope module dut $end
$var wire 1 1 clock $end
$var wire 1 2 reset $end
$var wire 1 3 iniciar $end
$var wire 1 4 centena_angulo [6] $end
$var wire 1 5 centena_angulo [5] $end
$var wire 1 6 centena_angulo [4] $end
$var wire 1 7 centena_angulo [3] $end
$var wire 1 8 centena_angulo [2] $end
$var wire 1 9 centena_angulo [1] $end
$var wire 1 : centena_angulo [0] $end
$var wire 1 ; dezena_angulo [6] $end
$var wire 1 < dezena_angulo [5] $end
$var wire 1 = dezena_angulo [4] $end
$var wire 1 > dezena_angulo [3] $end
$var wire 1 ? dezena_angulo [2] $end
$var wire 1 @ dezena_angulo [1] $end
$var wire 1 A dezena_angulo [0] $end
$var wire 1 B unidade_angulo [6] $end
$var wire 1 C unidade_angulo [5] $end
$var wire 1 D unidade_angulo [4] $end
$var wire 1 E unidade_angulo [3] $end
$var wire 1 F unidade_angulo [2] $end
$var wire 1 G unidade_angulo [1] $end
$var wire 1 H unidade_angulo [0] $end
$var wire 1 I caractere_final_angulo [6] $end
$var wire 1 J caractere_final_angulo [5] $end
$var wire 1 K caractere_final_angulo [4] $end
$var wire 1 L caractere_final_angulo [3] $end
$var wire 1 M caractere_final_angulo [2] $end
$var wire 1 N caractere_final_angulo [1] $end
$var wire 1 O caractere_final_angulo [0] $end
$var wire 1 P centena_distancia [6] $end
$var wire 1 Q centena_distancia [5] $end
$var wire 1 R centena_distancia [4] $end
$var wire 1 S centena_distancia [3] $end
$var wire 1 T centena_distancia [2] $end
$var wire 1 U centena_distancia [1] $end
$var wire 1 V centena_distancia [0] $end
$var wire 1 W dezena_distancia [6] $end
$var wire 1 X dezena_distancia [5] $end
$var wire 1 Y dezena_distancia [4] $end
$var wire 1 Z dezena_distancia [3] $end
$var wire 1 [ dezena_distancia [2] $end
$var wire 1 \ dezena_distancia [1] $end
$var wire 1 ] dezena_distancia [0] $end
$var wire 1 ^ unidade_distancia [6] $end
$var wire 1 _ unidade_distancia [5] $end
$var wire 1 ` unidade_distancia [4] $end
$var wire 1 a unidade_distancia [3] $end
$var wire 1 b unidade_distancia [2] $end
$var wire 1 c unidade_distancia [1] $end
$var wire 1 d unidade_distancia [0] $end
$var wire 1 e caractere_final_distancia [6] $end
$var wire 1 f caractere_final_distancia [5] $end
$var wire 1 g caractere_final_distancia [4] $end
$var wire 1 h caractere_final_distancia [3] $end
$var wire 1 i caractere_final_distancia [2] $end
$var wire 1 j caractere_final_distancia [1] $end
$var wire 1 k caractere_final_distancia [0] $end
$var wire 1 . pronto $end
$var wire 1 - dado_serial $end
$var wire 1 l s_transmite $end
$var wire 1 m s_fim_transmissao $end

$scope module FD $end
$var wire 1 1 clock $end
$var wire 1 2 reset $end
$var wire 1 4 centena_angulo [6] $end
$var wire 1 5 centena_angulo [5] $end
$var wire 1 6 centena_angulo [4] $end
$var wire 1 7 centena_angulo [3] $end
$var wire 1 8 centena_angulo [2] $end
$var wire 1 9 centena_angulo [1] $end
$var wire 1 : centena_angulo [0] $end
$var wire 1 ; dezena_angulo [6] $end
$var wire 1 < dezena_angulo [5] $end
$var wire 1 = dezena_angulo [4] $end
$var wire 1 > dezena_angulo [3] $end
$var wire 1 ? dezena_angulo [2] $end
$var wire 1 @ dezena_angulo [1] $end
$var wire 1 A dezena_angulo [0] $end
$var wire 1 B unidade_angulo [6] $end
$var wire 1 C unidade_angulo [5] $end
$var wire 1 D unidade_angulo [4] $end
$var wire 1 E unidade_angulo [3] $end
$var wire 1 F unidade_angulo [2] $end
$var wire 1 G unidade_angulo [1] $end
$var wire 1 H unidade_angulo [0] $end
$var wire 1 I caractere_final_angulo [6] $end
$var wire 1 J caractere_final_angulo [5] $end
$var wire 1 K caractere_final_angulo [4] $end
$var wire 1 L caractere_final_angulo [3] $end
$var wire 1 M caractere_final_angulo [2] $end
$var wire 1 N caractere_final_angulo [1] $end
$var wire 1 O caractere_final_angulo [0] $end
$var wire 1 P centena_distancia [6] $end
$var wire 1 Q centena_distancia [5] $end
$var wire 1 R centena_distancia [4] $end
$var wire 1 S centena_distancia [3] $end
$var wire 1 T centena_distancia [2] $end
$var wire 1 U centena_distancia [1] $end
$var wire 1 V centena_distancia [0] $end
$var wire 1 W dezena_distancia [6] $end
$var wire 1 X dezena_distancia [5] $end
$var wire 1 Y dezena_distancia [4] $end
$var wire 1 Z dezena_distancia [3] $end
$var wire 1 [ dezena_distancia [2] $end
$var wire 1 \ dezena_distancia [1] $end
$var wire 1 ] dezena_distancia [0] $end
$var wire 1 ^ unidade_distancia [6] $end
$var wire 1 _ unidade_distancia [5] $end
$var wire 1 ` unidade_distancia [4] $end
$var wire 1 a unidade_distancia [3] $end
$var wire 1 b unidade_distancia [2] $end
$var wire 1 c unidade_distancia [1] $end
$var wire 1 d unidade_distancia [0] $end
$var wire 1 e caractere_final_distancia [6] $end
$var wire 1 f caractere_final_distancia [5] $end
$var wire 1 g caractere_final_distancia [4] $end
$var wire 1 h caractere_final_distancia [3] $end
$var wire 1 i caractere_final_distancia [2] $end
$var wire 1 j caractere_final_distancia [1] $end
$var wire 1 k caractere_final_distancia [0] $end
$var wire 1 l transmite $end
$var wire 1 m fim_transmissao $end
$var wire 1 - saida_serial $end
$var wire 1 n sel [2] $end
$var wire 1 o sel [1] $end
$var wire 1 p sel [0] $end
$var wire 1 q ascii_transmitido [6] $end
$var wire 1 r ascii_transmitido [5] $end
$var wire 1 s ascii_transmitido [4] $end
$var wire 1 t ascii_transmitido [3] $end
$var wire 1 u ascii_transmitido [2] $end
$var wire 1 v ascii_transmitido [1] $end
$var wire 1 w ascii_transmitido [0] $end
$var wire 1 x s_fim_transmissao $end

$scope module MUX $end
$var parameter 32 y BITS $end
$var wire 1 e D7 [6] $end
$var wire 1 f D7 [5] $end
$var wire 1 g D7 [4] $end
$var wire 1 h D7 [3] $end
$var wire 1 i D7 [2] $end
$var wire 1 j D7 [1] $end
$var wire 1 k D7 [0] $end
$var wire 1 ^ D6 [6] $end
$var wire 1 _ D6 [5] $end
$var wire 1 ` D6 [4] $end
$var wire 1 a D6 [3] $end
$var wire 1 b D6 [2] $end
$var wire 1 c D6 [1] $end
$var wire 1 d D6 [0] $end
$var wire 1 W D5 [6] $end
$var wire 1 X D5 [5] $end
$var wire 1 Y D5 [4] $end
$var wire 1 Z D5 [3] $end
$var wire 1 [ D5 [2] $end
$var wire 1 \ D5 [1] $end
$var wire 1 ] D5 [0] $end
$var wire 1 P D4 [6] $end
$var wire 1 Q D4 [5] $end
$var wire 1 R D4 [4] $end
$var wire 1 S D4 [3] $end
$var wire 1 T D4 [2] $end
$var wire 1 U D4 [1] $end
$var wire 1 V D4 [0] $end
$var wire 1 I D3 [6] $end
$var wire 1 J D3 [5] $end
$var wire 1 K D3 [4] $end
$var wire 1 L D3 [3] $end
$var wire 1 M D3 [2] $end
$var wire 1 N D3 [1] $end
$var wire 1 O D3 [0] $end
$var wire 1 B D2 [6] $end
$var wire 1 C D2 [5] $end
$var wire 1 D D2 [4] $end
$var wire 1 E D2 [3] $end
$var wire 1 F D2 [2] $end
$var wire 1 G D2 [1] $end
$var wire 1 H D2 [0] $end
$var wire 1 ; D1 [6] $end
$var wire 1 < D1 [5] $end
$var wire 1 = D1 [4] $end
$var wire 1 > D1 [3] $end
$var wire 1 ? D1 [2] $end
$var wire 1 @ D1 [1] $end
$var wire 1 A D1 [0] $end
$var wire 1 4 D0 [6] $end
$var wire 1 5 D0 [5] $end
$var wire 1 6 D0 [4] $end
$var wire 1 7 D0 [3] $end
$var wire 1 8 D0 [2] $end
$var wire 1 9 D0 [1] $end
$var wire 1 : D0 [0] $end
$var wire 1 n SEL [2] $end
$var wire 1 o SEL [1] $end
$var wire 1 p SEL [0] $end
$var wire 1 q MUX_OUT [6] $end
$var wire 1 r MUX_OUT [5] $end
$var wire 1 s MUX_OUT [4] $end
$var wire 1 t MUX_OUT [3] $end
$var wire 1 u MUX_OUT [2] $end
$var wire 1 v MUX_OUT [1] $end
$var wire 1 w MUX_OUT [0] $end
$upscope $end

$scope module CONTA_SELECT $end
$var parameter 32 z M $end
$var parameter 32 { N $end
$var wire 1 1 clock $end
$var wire 1 | zera_as $end
$var wire 1 2 zera_s $end
$var wire 1 x conta $end
$var reg 3 } Q [2:0] $end
$var reg 1 ~ fim $end
$var reg 1 !! meio $end
$upscope $end

$scope module SERIAL $end
$var wire 1 1 clock $end
$var wire 1 2 reset $end
$var wire 1 l partida $end
$var wire 1 q dados_ascii [6] $end
$var wire 1 r dados_ascii [5] $end
$var wire 1 s dados_ascii [4] $end
$var wire 1 t dados_ascii [3] $end
$var wire 1 u dados_ascii [2] $end
$var wire 1 v dados_ascii [1] $end
$var wire 1 w dados_ascii [0] $end
$var wire 1 - saida_serial $end
$var wire 1 x pronto $end
$var wire 1 "! db_partida $end
$var wire 1 #! db_saida_serial $end
$var wire 1 $! db_estado [3] $end
$var wire 1 %! db_estado [2] $end
$var wire 1 &! db_estado [1] $end
$var wire 1 '! db_estado [0] $end
$var wire 1 (! s_reset $end
$var wire 1 )! s_partida $end
$var wire 1 *! s_zera $end
$var wire 1 +! s_conta $end
$var wire 1 ,! s_carrega $end
$var wire 1 -! s_desloca $end
$var wire 1 .! s_tick $end
$var wire 1 /! s_fim $end
$var wire 1 0! s_saida_serial $end
$var wire 1 1! s_estado [3] $end
$var wire 1 2! s_estado [2] $end
$var wire 1 3! s_estado [1] $end
$var wire 1 4! s_estado [0] $end
$var wire 1 5! db_clock $end
$var wire 1 6! db_tick $end

$scope module U1_FD $end
$var wire 1 1 clock $end
$var wire 1 (! reset $end
$var wire 1 *! zera $end
$var wire 1 +! conta $end
$var wire 1 ,! carrega $end
$var wire 1 -! desloca $end
$var wire 1 q dados_ascii [6] $end
$var wire 1 r dados_ascii [5] $end
$var wire 1 s dados_ascii [4] $end
$var wire 1 t dados_ascii [3] $end
$var wire 1 u dados_ascii [2] $end
$var wire 1 v dados_ascii [1] $end
$var wire 1 w dados_ascii [0] $end
$var wire 1 0! saida_serial $end
$var wire 1 /! fim $end
$var wire 1 7! s_dados [10] $end
$var wire 1 8! s_dados [9] $end
$var wire 1 9! s_dados [8] $end
$var wire 1 :! s_dados [7] $end
$var wire 1 ;! s_dados [6] $end
$var wire 1 <! s_dados [5] $end
$var wire 1 =! s_dados [4] $end
$var wire 1 >! s_dados [3] $end
$var wire 1 ?! s_dados [2] $end
$var wire 1 @! s_dados [1] $end
$var wire 1 A! s_dados [0] $end
$var wire 1 B! s_saida [10] $end
$var wire 1 C! s_saida [9] $end
$var wire 1 D! s_saida [8] $end
$var wire 1 E! s_saida [7] $end
$var wire 1 F! s_saida [6] $end
$var wire 1 G! s_saida [5] $end
$var wire 1 H! s_saida [4] $end
$var wire 1 I! s_saida [3] $end
$var wire 1 J! s_saida [2] $end
$var wire 1 K! s_saida [1] $end
$var wire 1 L! s_saida [0] $end

$scope module U1 $end
$var parameter 32 M! N $end
$var wire 1 1 clock $end
$var wire 1 (! reset $end
$var wire 1 ,! carrega $end
$var wire 1 -! desloca $end
$var wire 1 N! entrada_serial $end
$var wire 1 7! dados [10] $end
$var wire 1 8! dados [9] $end
$var wire 1 9! dados [8] $end
$var wire 1 :! dados [7] $end
$var wire 1 ;! dados [6] $end
$var wire 1 <! dados [5] $end
$var wire 1 =! dados [4] $end
$var wire 1 >! dados [3] $end
$var wire 1 ?! dados [2] $end
$var wire 1 @! dados [1] $end
$var wire 1 A! dados [0] $end
$var wire 1 B! saida [10] $end
$var wire 1 C! saida [9] $end
$var wire 1 D! saida [8] $end
$var wire 1 E! saida [7] $end
$var wire 1 F! saida [6] $end
$var wire 1 G! saida [5] $end
$var wire 1 H! saida [4] $end
$var wire 1 I! saida [3] $end
$var wire 1 J! saida [2] $end
$var wire 1 K! saida [1] $end
$var wire 1 L! saida [0] $end
$var reg 11 O! IQ [10:0] $end
$upscope $end

$scope module U2 $end
$var parameter 32 P! M $end
$var parameter 32 Q! N $end
$var wire 1 1 clock $end
$var wire 1 R! zera_as $end
$var wire 1 *! zera_s $end
$var wire 1 +! conta $end
$var reg 4 S! Q [3:0] $end
$var reg 1 T! fim $end
$var reg 1 U! meio $end
$upscope $end
$upscope $end

$scope module U2_UC $end
$var parameter 4 V! inicial $end
$var parameter 4 W! preparacao $end
$var parameter 4 X! espera $end
$var parameter 4 Y! transmissao $end
$var parameter 4 Z! final_tx $end
$var wire 1 1 clock $end
$var wire 1 (! reset $end
$var wire 1 )! partida $end
$var wire 1 .! tick $end
$var wire 1 /! fim $end
$var reg 1 [! zera $end
$var reg 1 \! conta $end
$var reg 1 ]! carrega $end
$var reg 1 ^! desloca $end
$var reg 1 _! pronto $end
$var reg 4 `! db_estado [3:0] $end
$var reg 4 a! Eatual [3:0] $end
$var reg 4 b! Eprox [3:0] $end
$upscope $end

$scope module U3_TICK $end
$var parameter 32 c! M $end
$var parameter 32 d! N $end
$var wire 1 1 clock $end
$var wire 1 e! zera_as $end
$var wire 1 *! zera_s $end
$var wire 1 f! conta $end
$var reg 9 g! Q [8:0] $end
$var reg 1 h! fim $end
$var reg 1 i! meio $end
$upscope $end
$upscope $end
$upscope $end

$scope module UC $end
$var parameter 5 j! inicial $end
$var parameter 5 k! transmite_centena_angulo $end
$var parameter 5 l! espera_transmissao_centena_angulo $end
$var parameter 5 m! transmite_dezena_angulo $end
$var parameter 5 n! espera_transmissao_dezena_angulo $end
$var parameter 5 o! transmite_unidade_angulo $end
$var parameter 5 p! espera_transmissao_unidade_angulo $end
$var parameter 5 q! transmite_caracter_final_angulo $end
$var parameter 5 r! espera_transmissao_caracter_final_angulo $end
$var parameter 5 s! transmite_centena_distancia $end
$var parameter 5 t! espera_transmissao_centena_distancia $end
$var parameter 5 u! transmite_dezena_distancia $end
$var parameter 5 v! espera_transmissao_dezena_distancia $end
$var parameter 5 w! transmite_unidade_distancia $end
$var parameter 5 x! espera_transmissao_unidade_distancia $end
$var parameter 5 y! transmite_caracter_final_distancia $end
$var parameter 5 z! espera_transmissao_caracter_final_distancia $end
$var parameter 5 {! fim $end
$var wire 1 1 clock $end
$var wire 1 2 reset $end
$var wire 1 3 iniciar $end
$var wire 1 m fim_transmissao $end
$var reg 1 |! transmite $end
$var reg 1 }! pronto $end
$var reg 5 ~! Eatual [4:0] $end
$var reg 5 !" Eprox [4:0] $end
$upscope $end
$upscope $end
$upscope $end
$enddefinitions $end
#0
$dumpvars
0"
x#
0$
b110001 %
b110100 &
b110111 '
b101100 (
b110010 )
b111000 *
b110111 +
b100011 ,
bx }
x~
x!!
bx O!
bx S!
xT!
xU!
x[!
x\!
x]!
x^!
x_!
bx `!
bx a!
bx b!
bx g!
xh!
xi!
x|!
x}!
bx ~!
b0 !"
bx 0
b10100 !
b111 y
b1000 z
b11 {
b1011 M!
b1100 P!
b100 Q!
b0 V!
b1 W!
b11 X!
b111 Y!
b1111 Z!
b110110010 c!
b1001 d!
b0 j!
b1 k!
b10 l!
b11 m!
b100 n!
b101 o!
b110 p!
b111 q!
b1000 r!
b1001 s!
b1010 t!
b1011 u!
b1100 v!
b1101 w!
b1110 x!
b1111 y!
b10000 z!
b10001 {!
b0 /
x-
x.
xl
xm
xp
xo
xn
xw
xv
xu
xt
xs
1r
xq
xx
x(!
x)!
x*!
x+!
x,!
x-!
x.!
x/!
x0!
x4!
x3!
x2!
x1!
1A!
0@!
x?!
x>!
x=!
x<!
x;!
1:!
x9!
x8!
17!
xL!
xK!
xJ!
xI!
xH!
xG!
xF!
xE!
xD!
xC!
xB!
05!
x6!
1k
1j
0i
0h
0g
1f
0e
1d
1c
1b
0a
1`
1_
0^
0]
0\
0[
1Z
1Y
1X
0W
0V
1U
0T
0S
1R
1Q
0P
0O
0N
1M
1L
0K
1J
0I
1H
1G
1F
0E
1D
1C
0B
0A
0@
1?
0>
1=
1<
0;
1:
09
08
07
16
15
04
03
x2
01
z|
x"!
x#!
x'!
x&!
x%!
x$!
1f!
0e!
0R!
1N!
$end
#10
1"
11
15!
b0 ~!
0|!
0}!
0l
0.
0)!
0"!
b0 b!
#20
0"
01
05!
#30
1"
11
15!
b0 a!
0]!
0[!
0^!
0\!
0_!
b0 `!
0,!
0*!
0-!
0+!
0x
04!
03!
02!
01!
0'!
0&!
0%!
0$!
0m
#40
1#
0"
12
01
05!
1(!
b11111111111 O!
1L!
1K!
1J!
1I!
1H!
1G!
1F!
1E!
1D!
1C!
1B!
10!
1-
1#!
#50
1"
11
15!
b0 }
0p
0o
0n
1w
0v
0u
0t
1s
0q
08!
1?!
0>!
0=!
0<!
1;!
09!
0~
0!!
#60
0"
01
05!
#70
1"
11
15!
#80
0"
01
05!
#90
1"
11
15!
#100
0"
01
05!
#110
1"
11
15!
#120
0"
01
05!
#130
1"
11
15!
#140
0"
01
05!
#150
1"
11
15!
#160
0"
01
05!
#170
1"
11
15!
#180
0"
01
05!
#190
1"
11
15!
#200
0"
01
05!
#210
1"
11
15!
#220
0"
01
05!
#230
1"
11
15!
#240
0"
01
05!
#250
1"
11
15!
#260
0"
01
05!
#270
1"
11
15!
#280
0"
01
05!
#290
1"
11
15!
#300
0"
01
05!
#310
1"
11
15!
#320
0"
01
05!
#330
1"
11
15!
#340
0"
01
05!
#350
1"
11
15!
#360
0"
01
05!
#370
1"
11
15!
#380
0"
01
05!
#390
1"
11
15!
#400
0"
01
05!
#410
1"
11
15!
#420
0"
01
05!
#430
1"
11
15!
#440
0"
01
05!
#450
1"
11
15!
#460
0"
01
05!
#470
1"
11
15!
#480
0"
01
05!
#490
1"
11
15!
#500
0"
01
05!
#510
1"
11
15!
#520
0"
01
05!
#530
1"
11
15!
#540
0"
01
05!
#550
1"
11
15!
#560
0"
01
05!
#570
1"
11
15!
#580
0"
01
05!
#590
1"
11
15!
#600
0"
01
05!
#610
1"
11
15!
#620
0"
01
05!
#630
1"
11
15!
#640
0"
01
05!
#650
1"
11
15!
#660
0"
01
05!
#670
1"
11
15!
#680
0"
01
05!
#690
1"
11
15!
#700
0"
01
05!
#710
1"
11
15!
#720
0"
01
05!
#730
1"
11
15!
#740
0"
01
05!
#750
1"
11
15!
#760
0"
01
05!
#770
1"
11
15!
#780
0"
01
05!
#790
1"
11
15!
#800
0"
01
05!
#810
1"
11
15!
#820
0"
01
05!
#830
1"
11
15!
#840
0"
01
05!
#850
1"
11
15!
#860
0"
01
05!
#870
1"
11
15!
#880
0"
01
05!
#890
1"
11
15!
#900
0"
01
05!
#910
1"
11
15!
#920
0"
01
05!
#930
1"
11
15!
#940
0"
01
05!
#950
1"
11
15!
#960
0"
01
05!
#970
1"
11
15!
#980
0"
01
05!
#990
1"
11
15!
#1000
0"
01
05!
#1010
1"
11
15!
#1020
0"
01
05!
#1030
1"
11
15!
#1040
0"
01
05!
#1050
1"
11
15!
#1060
0"
01
05!
#1070
1"
11
15!
#1080
0"
01
05!
#1090
1"
11
15!
#1100
0"
01
05!
#1110
1"
11
15!
#1120
0"
01
05!
#1130
1"
11
15!
#1140
0"
01
05!
#1150
1"
11
15!
#1160
0"
01
05!
#1170
1"
11
15!
#1180
0"
01
05!
#1190
1"
11
15!
#1200
0"
01
05!
#1210
1"
11
15!
#1220
0"
01
05!
#1230
1"
11
15!
#1240
0"
01
05!
#1250
1"
11
15!
#1260
0"
01
05!
#1270
1"
11
15!
#1280
0"
01
05!
#1290
1"
11
15!
#1300
0"
01
05!
#1310
1"
11
15!
#1320
0"
01
05!
#1330
1"
11
15!
#1340
0"
01
05!
#1350
1"
11
15!
#1360
0"
01
05!
#1370
1"
11
15!
#1380
0"
01
05!
#1390
1"
11
15!
#1400
0"
01
05!
#1410
1"
11
15!
#1420
0"
01
05!
#1430
1"
11
15!
#1440
0"
01
05!
#1450
1"
11
15!
#1460
0"
01
05!
#1470
1"
11
15!
#1480
0"
01
05!
#1490
1"
11
15!
#1500
0"
01
05!
#1510
1"
11
15!
#1520
0"
01
05!
#1530
1"
11
15!
#1540
0"
01
05!
#1550
1"
11
15!
#1560
0"
01
05!
#1570
1"
11
15!
#1580
0"
01
05!
#1590
1"
11
15!
#1600
0"
01
05!
#1610
1"
11
15!
#1620
0"
01
05!
#1630
1"
11
15!
#1640
0"
01
05!
#1650
1"
11
15!
#1660
0"
01
05!
#1670
1"
11
15!
#1680
0"
01
05!
#1690
1"
11
15!
#1700
0"
01
05!
#1710
1"
11
15!
#1720
0"
01
05!
#1730
1"
11
15!
#1740
0"
01
05!
#1750
1"
11
15!
#1760
0"
01
05!
#1770
1"
11
15!
#1780
0"
01
05!
#1790
1"
11
15!
#1800
0"
01
05!
#1810
1"
11
15!
#1820
0"
01
05!
#1830
1"
11
15!
#1840
0"
01
05!
#1850
1"
11
15!
#1860
0"
01
05!
#1870
1"
11
15!
#1880
0"
01
05!
#1890
1"
11
15!
#1900
0"
01
05!
#1910
1"
11
15!
#1920
0"
01
05!
#1930
1"
11
15!
#1940
0"
01
05!
#1950
1"
11
15!
#1960
0"
01
05!
#1970
1"
11
15!
#1980
0"
01
05!
#1990
1"
11
15!
#2000
0"
01
05!
#2010
1"
11
15!
#2020
0"
01
05!
#2030
1"
11
15!
#2040
0#
0"
02
01
05!
0(!
1$
13
b1 !"
#2050
1"
11
15!
b1 ~!
b10 !"
1|!
1l
1)!
1"!
b1 b!
#2060
0"
01
05!
#2070
1"
11
15!
b1 a!
b10 ~!
0|!
b11 b!
1]!
1[!
b1 `!
0l
1,!
1*!
14!
1'!
0)!
0"!
#2080
0$
0"
03
01
05!
#2090
1"
11
15!
b10011000101 O!
b0 S!
b11 a!
b0 g!
0K!
0I!
0H!
0G!
0D!
0C!
0h!
0i!
bx11 b!
0]!
0[!
b11 `!
0T!
0U!
0,!
0*!
13!
1&!
0.!
0/!
06!
b11 b!
#2100
0"
01
05!
#2110
1"
11
15!
b1 g!
#2120
0"
01
05!
#2130
1"
11
15!
b10 g!
#2140
0"
01
05!
#2150
1"
11
15!
b11 g!
#2160
0"
01
05!
#2170
1"
11
15!
b100 g!
#2180
0"
01
05!
#2190
1"
11
15!
b101 g!
#2200
0"
01
05!
#2210
1"
11
15!
b110 g!
#2220
0"
01
05!
#2230
1"
11
15!
b111 g!
#2240
0"
01
05!
#2250
1"
11
15!
b1000 g!
#2260
0"
01
05!
#2270
1"
11
15!
b1001 g!
#2280
0"
01
05!
#2290
1"
11
15!
b1010 g!
#2300
0"
01
05!
#2310
1"
11
15!
b1011 g!
#2320
0"
01
05!
#2330
1"
11
15!
b1100 g!
#2340
0"
01
05!
#2350
1"
11
15!
b1101 g!
#2360
0"
01
05!
#2370
1"
11
15!
b1110 g!
#2380
0"
01
05!
#2390
1"
11
15!
b1111 g!
#2400
0"
01
05!
#2410
1"
11
15!
b10000 g!
#2420
0"
01
05!
#2430
1"
11
15!
b10001 g!
#2440
0"
01
05!
#2450
1"
11
15!
b10010 g!
#2460
0"
01
05!
#2470
1"
11
15!
b10011 g!
#2480
0"
01
05!
#2490
1"
11
15!
b10100 g!
#2500
0"
01
05!
#2510
1"
11
15!
b10101 g!
#2520
0"
01
05!
#2530
1"
11
15!
b10110 g!
#2540
0"
01
05!
#2550
1"
11
15!
b10111 g!
#2560
0"
01
05!
#2570
1"
11
15!
b11000 g!
#2580
0"
01
05!
#2590
1"
11
15!
b11001 g!
#2600
0"
01
05!
#2610
1"
11
15!
b11010 g!
#2620
0"
01
05!
#2630
1"
11
15!
b11011 g!
#2640
0"
01
05!
#2650
1"
11
15!
b11100 g!
#2660
0"
01
05!
#2670
1"
11
15!
b11101 g!
#2680
0"
01
05!
#2690
1"
11
15!
b11110 g!
#2700
0"
01
05!
#2710
1"
11
15!
b11111 g!
#2720
0"
01
05!
#2730
1"
11
15!
b100000 g!
#2740
0"
01
05!
#2750
1"
11
15!
b100001 g!
#2760
0"
01
05!
#2770
1"
11
15!
b100010 g!
#2780
0"
01
05!
#2790
1"
11
15!
b100011 g!
#2800
0"
01
05!
#2810
1"
11
15!
b100100 g!
#2820
0"
01
05!
#2830
1"
11
15!
b100101 g!
#2840
0"
01
05!
#2850
1"
11
15!
b100110 g!
#2860
0"
01
05!
#2870
1"
11
15!
b100111 g!
#2880
0"
01
05!
#2890
1"
11
15!
b101000 g!
#2900
0"
01
05!
#2910
1"
11
15!
b101001 g!
#2920
0"
01
05!
#2930
1"
11
15!
b101010 g!
#2940
0"
01
05!
#2950
1"
11
15!
b101011 g!
#2960
0"
01
05!
#2970
1"
11
15!
b101100 g!
#2980
0"
01
05!
#2990
1"
11
15!
b101101 g!
#3000
0"
01
05!
#3010
1"
11
15!
b101110 g!
#3020
0"
01
05!
#3030
1"
11
15!
b101111 g!
#3040
0"
01
05!
#3050
1"
11
15!
b110000 g!
#3060
0"
01
05!
#3070
1"
11
15!
b110001 g!
#3080
0"
01
05!
#3090
1"
11
15!
b110010 g!
#3100
0"
01
05!
#3110
1"
11
15!
b110011 g!
#3120
0"
01
05!
#3130
1"
11
15!
b110100 g!
#3140
0"
01
05!
#3150
1"
11
15!
b110101 g!
#3160
0"
01
05!
#3170
1"
11
15!
b110110 g!
#3180
0"
01
05!
#3190
1"
11
15!
b110111 g!
#3200
0"
01
05!
#3210
1"
11
15!
b111000 g!
#3220
0"
01
05!
#3230
1"
11
15!
b111001 g!
#3240
0"
01
05!
#3250
1"
11
15!
b111010 g!
#3260
0"
01
05!
#3270
1"
11
15!
b111011 g!
#3280
0"
01
05!
#3290
1"
11
15!
b111100 g!
#3300
0"
01
05!
#3310
1"
11
15!
b111101 g!
#3320
0"
01
05!
#3330
1"
11
15!
b111110 g!
#3340
0"
01
05!
#3350
1"
11
15!
b111111 g!
#3360
0"
01
05!
#3370
1"
11
15!
b1000000 g!
#3380
0"
01
05!
#3390
1"
11
15!
b1000001 g!
#3400
0"
01
05!
#3410
1"
11
15!
b1000010 g!
#3420
0"
01
05!
#3430
1"
11
15!
b1000011 g!
#3440
0"
01
05!
#3450
1"
11
15!
b1000100 g!
#3460
0"
01
05!
#3470
1"
11
15!
b1000101 g!
#3480
0"
01
05!
#3490
1"
11
15!
b1000110 g!
#3500
0"
01
05!
#3510
1"
11
15!
b1000111 g!
#3520
0"
01
05!
#3530
1"
11
15!
b1001000 g!
#3540
0"
01
05!
#3550
1"
11
15!
b1001001 g!
#3560
0"
01
05!
#3570
1"
11
15!
b1001010 g!
#3580
0"
01
05!
#3590
1"
11
15!
b1001011 g!
#3600
0"
01
05!
#3610
1"
11
15!
b1001100 g!
#3620
0"
01
05!
#3630
1"
11
15!
b1001101 g!
#3640
0"
01
05!
#3650
1"
11
15!
b1001110 g!
#3660
0"
01
05!
#3670
1"
11
15!
b1001111 g!
#3680
0"
01
05!
#3690
1"
11
15!
b1010000 g!
#3700
0"
01
05!
#3710
1"
11
15!
b1010001 g!
#3720
0"
01
05!
#3730
1"
11
15!
b1010010 g!
#3740
0"
01
05!
#3750
1"
11
15!
b1010011 g!
#3760
0"
01
05!
#3770
1"
11
15!
b1010100 g!
#3780
0"
01
05!
#3790
1"
11
15!
b1010101 g!
#3800
0"
01
05!
#3810
1"
11
15!
b1010110 g!
#3820
0"
01
05!
#3830
1"
11
15!
b1010111 g!
#3840
0"
01
05!
#3850
1"
11
15!
b1011000 g!
#3860
0"
01
05!
#3870
1"
11
15!
b1011001 g!
#3880
0"
01
05!
#3890
1"
11
15!
b1011010 g!
#3900
0"
01
05!
#3910
1"
11
15!
b1011011 g!
#3920
0"
01
05!
#3930
1"
11
15!
b1011100 g!
#3940
0"
01
05!
#3950
1"
11
15!
b1011101 g!
#3960
0"
01
05!
#3970
1"
11
15!
b1011110 g!
#3980
0"
01
05!
#3990
1"
11
15!
b1011111 g!
#4000
0"
01
05!
#4010
1"
11
15!
b1100000 g!
#4020
0"
01
05!
#4030
1"
11
15!
b1100001 g!
#4040
0"
01
05!
#4050
1"
11
15!
b1100010 g!
#4060
0"
01
05!
#4070
1"
11
15!
b1100011 g!
#4080
0"
01
05!
#4090
1"
11
15!
b1100100 g!
#4100
0"
01
05!
#4110
1"
11
15!
b1100101 g!
#4120
0"
01
05!
#4130
1"
11
15!
b1100110 g!
#4140
0"
01
05!
#4150
1"
11
15!
b1100111 g!
#4160
0"
01
05!
#4170
1"
11
15!
b1101000 g!
#4180
0"
01
05!
#4190
1"
11
15!
b1101001 g!
#4200
0"
01
05!
#4210
1"
11
15!
b1101010 g!
#4220
0"
01
05!
#4230
1"
11
15!
b1101011 g!
#4240
0"
01
05!
#4250
1"
11
15!
b1101100 g!
#4260
0"
01
05!
#4270
1"
11
15!
b1101101 g!
#4280
0"
01
05!
#4290
1"
11
15!
b1101110 g!
#4300
0"
01
05!
#4310
1"
11
15!
b1101111 g!
#4320
0"
01
05!
#4330
1"
11
15!
b1110000 g!
#4340
0"
01
05!
#4350
1"
11
15!
b1110001 g!
#4360
0"
01
05!
#4370
1"
11
15!
b1110010 g!
#4380
0"
01
05!
#4390
1"
11
15!
b1110011 g!
#4400
0"
01
05!
#4410
1"
11
15!
b1110100 g!
